{
    "servers": {
        "GenericMultiChannel": {
            "multiForLinac": {
                "GenericMultiChannel": {
                    "elin/focus/beam1": {
                        "properties": {
                            "AttributesList": [
                                "elin/focus/spare/current", 
                                "elin/focus/triplet/current", 
                                "elin/focus/lens/current", 
                                "elin/focus/buncher/current"
                            ], 
                            "AttributesSpectrumName": [
                                "new_attribute"
                            ]
                        }
                    }, 
                    "elin/focus/beam2": {
                        "properties": {
                            "AttributesList": [
                                "ELIN/FOCUS/SECT2/current", 
                                "ELIN/FOCUS/SECT1/current"
                            ], 
                            "AttributesSpectrumName": [
                                "currentSpecturum"
                            ]
                        }
                    }, 
                    "elin/focus/gun": {
                        "properties": {
                            "AttributesList": [
                                "elin/focus/b4coil/current ", 
                                "elin/focus/b3coil/current ", 
                                "elin/focus/b2coil/current ", 
                                "elin/focus/b1coil/current "
                            ]
                        }
                    }, 
                    "elin/focus/klystron": {
                        "properties": {
                            "AttributesList": [
                                "ELIN/FOCUS/KLY6/current ", 
                                "ELIN/FOCUS/KLY1/current ", 
                                "ELIN/FOCUS/KLY2/current ", 
                                "ELIN/FOCUS/KLY3/current ", 
                                "ELIN/FOCUS/KLY4/current ", 
                                "ELIN/FOCUS/KLY5/current "
                            ]
                        }
                    }, 
                    "elin/focus/klystron1": {
                        "properties": {
                            "AttributesList": [
                                "ELIN/FOCUS/KLY6/current ", 
                                "ELIN/FOCUS/KLY1_1/current ", 
                                "ELIN/FOCUS/KLY1_2/current ", 
                                "ELIN/FOCUS/KLY1_3/current ", 
                                "ELIN/FOCUS/KLY4/current ", 
                                "ELIN/FOCUS/KLY5/current "
                            ]
                        }
                    }, 
                    "elin/focus/klystron2": {
                        "properties": {
                            "AttributesList": [
                                "ELIN/FOCUS/KLY2_1/current ", 
                                "ELIN/FOCUS/KLY2_2/current ", 
                                "ELIN/FOCUS/KLY2_3/current "
                            ]
                        }
                    }, 
                    "elin/steer/1": {
                        "properties": {
                            "AttributesList": [
                                "ELIN/STEER/CHAN16/current", 
                                "ELIN/STEER/BV1/current ", 
                                "ELIN/STEER/BH2/current ", 
                                "ELIN/STEER/BV2/current ", 
                                "ELIN/STEER/S1H1/current ", 
                                "ELIN/STEER/S1V1/current ", 
                                "ELIN/STEER/S1H2/current ", 
                                "ELIN/STEER/S1V2/current ", 
                                "ELIN/STEER/TRIPLET/current ", 
                                "ELIN/STEER/S2H1/current ", 
                                "ELIN/STEER/S2V1/current ", 
                                "ELIN/STEER/S2H2/current ", 
                                "ELIN/STEER/S2V2/current ", 
                                "ELIN/STEER/BH1/current "
                            ]
                        }
                    }, 
                    "elin/steer/gun": {
                        "properties": {
                            "AttributesList": [
                                "ELIN/STEER/GV3/current", 
                                "ELIN/STEER/GH1/current ", 
                                "ELIN/STEER/GV1/current ", 
                                "ELIN/STEER/GH2/current ", 
                                "ELIN/STEER/GV2/current ", 
                                "ELIN/STEER/GH3/current "
                            ]
                        }
                    }, 
                    "elin/steer/pbunch": {
                        "properties": {
                            "AttributesList": [
                                "ELIN/STEER/GH4/current ", 
                                "ELIN/STEER/GV4/current"
                            ]
                        }
                    }
                }
            }
        }, 
        "GenericSimulator": {
            "genericForLinac": {
                "GenericSimulator": {
                    "elin/cool/bun-temps": {}, 
                    "elin/cool/pbun-temps": {}, 
                    "elin/cool/sec-temps": {}, 
                    "elin/cool/temp-adc": {}, 
                    "elin/focus/b1coil": {}, 
                    "elin/focus/b2coil": {}, 
                    "elin/focus/b3coil": {}, 
                    "elin/focus/b4coil": {}, 
                    "elin/focus/buncher": {}, 
                    "elin/focus/kly1": {}, 
                    "elin/focus/kly1_1": {}, 
                    "elin/focus/kly1_2": {}, 
                    "elin/focus/kly1_3": {}, 
                    "elin/focus/kly2": {}, 
                    "elin/focus/kly2_1": {}, 
                    "elin/focus/kly2_2": {}, 
                    "elin/focus/kly2_3": {}, 
                    "elin/focus/kly3": {}, 
                    "elin/focus/kly4": {}, 
                    "elin/focus/kly5": {}, 
                    "elin/focus/kly6": {}, 
                    "elin/focus/lens": {}, 
                    "elin/focus/sect1": {}, 
                    "elin/focus/sect2": {}, 
                    "elin/focus/spare": {}, 
                    "elin/focus/triplet": {}, 
                    "elin/gun/gridv-adc": {}, 
                    "elin/gun/gridv-dac": {}, 
                    "elin/gun/headtv-dac": {}, 
                    "elin/gun/heati-adc": {}, 
                    "elin/gun/heatv-adc": {}, 
                    "elin/gun/hv-adc": {}, 
                    "elin/gun/hv-dac": {}, 
                    "elin/gun/pulsel-adc": {}, 
                    "elin/gun/pulsel-dac": {}, 
                    "elin/gun/pulsev-adc": {}, 
                    "elin/gun/pulsev-dac": {}, 
                    "elin/intlk/0": {}, 
                    "elin/mod1/heati-adc": {}, 
                    "elin/mod1/heatv-adc": {}, 
                    "elin/mod1/hv-adc": {}, 
                    "elin/mod1/hv-dac": {}, 
                    "elin/mod1/thyrheatv-adc": {}, 
                    "elin/mod2/heati-adc": {}, 
                    "elin/mod2/heatv-adc": {}, 
                    "elin/mod2/hv-adc": {}, 
                    "elin/mod2/hv-dac": {}, 
                    "elin/mod2/thyrheatv-adc": {}, 
                    "elin/o-cool/temp": {}, 
                    "elin/o-rf/freq": {}, 
                    "elin/rf/bun-at": {}, 
                    "elin/rf/bun-at-adc": {}, 
                    "elin/rf/bun-at-dac": {}, 
                    "elin/rf/bun-ph": {}, 
                    "elin/rf/bun-ph-adc": {}, 
                    "elin/rf/pbun-at-adc": {}, 
                    "elin/rf/pbun-at-dac": {}, 
                    "elin/rf/pbun-ph": {}, 
                    "elin/rf/pbun-ph-adc": {}, 
                    "elin/rf/pbun-ph-dac": {}, 
                    "elin/rf/sec-ph": {}, 
                    "elin/rf/sec-ph-dac": {}, 
                    "elin/steer/bh1": {}, 
                    "elin/steer/bh2": {}, 
                    "elin/steer/bv1": {}, 
                    "elin/steer/bv2": {}, 
                    "elin/steer/chan16": {}, 
                    "elin/steer/gh1": {}, 
                    "elin/steer/gh2": {}, 
                    "elin/steer/gh3": {}, 
                    "elin/steer/gh4": {}, 
                    "elin/steer/gv1": {}, 
                    "elin/steer/gv2": {}, 
                    "elin/steer/gv3": {}, 
                    "elin/steer/gv4": {}, 
                    "elin/steer/s1h1": {}, 
                    "elin/steer/s1h2": {}, 
                    "elin/steer/s1v1": {}, 
                    "elin/steer/s1v2": {}, 
                    "elin/steer/s2h1": {}, 
                    "elin/steer/s2h2": {}, 
                    "elin/steer/s2v1": {}, 
                    "elin/steer/s2v2": {}, 
                    "elin/steer/triplet": {}
                }
            }
        }, 
        "Linac": {
            "linac": {
                "Linac": {
                    "elin/master/op": {
                        "attribute_properties": {
                            "CT_device": {
                                "__value": [
                                    "ICT"
                                ]
                            }, 
                            "SRCT_Limit": {
                                "__value": [
                                    "250"
                                ]
                            }
                        }, 
                        "properties": {
                            "ICT_device": [
                                "sr/d-ct/ict-bidon"
                            ], 
                            "PCT_device": [
                                "sr/d-ct/pct-bidon"
                            ], 
                            "dirname": [
                                "/home/guest/Examples/jlinac/"
                            ], 
                            "ict_limit": [
                                "230"
                            ], 
                            "pct_limit": [
                                "102"
                            ], 
                            "polled_attr": [
                                "ct_current", 
                                "1000", 
                                "srct_limit", 
                                "1000", 
                                "state", 
                                "1000", 
                                "status", 
                                "1000", 
                                "file", 
                                "1000", 
                                "ct_device", 
                                "1000", 
                                "shortstatus", 
                                "1000"
                            ], 
                            "reset_devices_list": [
                                "elin/steer/1", 
                                "elin/focus/klystron2", 
                                "elin/focus/klystron1", 
                                "elin/focus/beam2", 
                                "elin/focus/beam1", 
                                "elin/master/seq", 
                                "elin/r-mod/reset"
                            ], 
                            "sequencer": [
                                "elin/master/seq"
                            ], 
                            "startfile": [
                                "operation_long"
                            ]
                        }
                    }
                }
            }
        }, 
        "LinacMediumLevel": {
            "linac": {
                "LinacCooling": {
                    "elin/cool/1": {}
                }, 
                "LinacGun": {
                    "elin/beam/run": {
                        "attribute_properties": {
                            "Delay": {
                                "__value": [
                                    "1"
                                ]
                            }, 
                            "GridV": {
                                "__value": [
                                    "-72"
                                ]
                            }, 
                            "PulseL": {
                                "__value": [
                                    "2.1"
                                ]
                            }, 
                            "PulseType": {
                                "__value": [
                                    "SHORT"
                                ]
                            }, 
                            "PulseV": {
                                "__value": [
                                    "15.6"
                                ]
                            }
                        }
                    }
                }, 
                "LinacGunAux": {
                    "elin/gun/aux": {
                        "attribute_properties": {
                            "HeatI": {
                                "display_unit": [
                                    "1.0"
                                ], 
                                "standard_unit": [
                                    "1.0"
                                ]
                            }, 
                            "HeatV": {
                                "__value": [
                                    "4.6"
                                ]
                            }
                        }
                    }
                }, 
                "LinacHVPS": {
                    "elin/gun/hv": {
                        "attribute_properties": {
                            "HighVoltage": {
                                "__value": [
                                    "75"
                                ]
                            }
                        }
                    }, 
                    "elin/mod1/hv": {
                        "attribute_properties": {
                            "HighVoltage": {
                                "__value": [
                                    "19.5"
                                ]
                            }
                        }
                    }, 
                    "elin/mod2/hv": {
                        "attribute_properties": {
                            "HighVoltage": {
                                "__value": [
                                    "18.94"
                                ]
                            }
                        }
                    }
                }, 
                "LinacModAux": {
                    "elin/mod1/aux": {
                        "attribute_properties": {
                            "Economy": {
                                "__value": [
                                    "false"
                                ]
                            }
                        }, 
                        "properties": {
                            "heatI_adc": [
                                "elin/mod1/heati-adc"
                            ], 
                            "heatV_adc": [
                                "elin/mod1/heatv-adc"
                            ], 
                            "heaterPS_device": [
                                "rb/test/chroma"
                            ], 
                            "interlocks_list": [
                                "3.3", 
                                "3.2", 
                                "3.1", 
                                "2.3", 
                                "2.1", 
                                "1.2", 
                                "1.1"
                            ], 
                            "thyratronHeatV_adc": [
                                "elin/mod1/thyrheatv-adc"
                            ]
                        }
                    }, 
                    "elin/mod2/aux": {
                        "attribute_properties": {
                            "Economy": {
                                "__value": [
                                    "false"
                                ]
                            }, 
                            "Temporization": {
                                "description": [
                                    "remaining time before the ON state."
                                ], 
                                "display_unit": [
                                    "s"
                                ], 
                                "format": [
                                    "%4d"
                                ], 
                                "label": [
                                    "Modulators Remaining Time"
                                ], 
                                "max_value": [
                                    "420"
                                ], 
                                "min_value": [
                                    "0"
                                ], 
                                "standard_unit": [
                                    "seconds"
                                ], 
                                "unit": [
                                    "seconds"
                                ]
                            }
                        }, 
                        "properties": {
                            "heatI_adc": [
                                "elin/mod2/heati-adc"
                            ], 
                            "heatV_adc": [
                                "elin/mod2/heatv-adc"
                            ], 
                            "interlocks_list": [
                                "3.3", 
                                "3.2", 
                                "3.1", 
                                "2.4", 
                                "2.2", 
                                "1.4", 
                                "1.3"
                            ], 
                            "thyratronHeatV_adc": [
                                "elin/mod2/thyrheatv-adc"
                            ]
                        }
                    }
                }, 
                "LinacModulator": {
                    "elin/mod/run-1": {
                        "attribute_properties": {
                            "Delay": {
                                "description": [
                                    "Delay"
                                ], 
                                "display_unit": [
                                    "ms"
                                ], 
                                "format": [
                                    "%5.2g"
                                ], 
                                "standard_unit": [
                                    "ms"
                                ], 
                                "unit": [
                                    "ms"
                                ]
                            }, 
                            "DelayS": {
                                "description": [
                                    "DelayS"
                                ], 
                                "display_unit": [
                                    "ms"
                                ], 
                                "format": [
                                    "%5.2g"
                                ], 
                                "standard_unit": [
                                    "ms"
                                ], 
                                "unit": [
                                    "ms"
                                ]
                            }, 
                            "PeakPowerOut": {
                                "description": [
                                    "Peak Power Out."
                                ], 
                                "display_unit": [
                                    "MW"
                                ], 
                                "format": [
                                    "%5.2f"
                                ], 
                                "label": [
                                    "Mod1 Power Out"
                                ], 
                                "standard_unit": [
                                    "MW"
                                ], 
                                "unit": [
                                    "MW"
                                ]
                            }, 
                            "VPFN": {
                                "description": [
                                    "Voltage Pulse Forming Network."
                                ], 
                                "display_unit": [
                                    "kV"
                                ], 
                                "format": [
                                    "%5.2g"
                                ], 
                                "label": [
                                    "Mod1 VPFN"
                                ], 
                                "standard_unit": [
                                    "kV"
                                ], 
                                "unit": [
                                    "kV"
                                ]
                            }
                        }, 
                        "properties": {
                            "delayS_name": [
                                "elin/t-mod/s1"
                            ], 
                            "delay_name": [
                                "elin/t-mod/1"
                            ]
                        }
                    }, 
                    "elin/mod/run-2": {
                        "attribute_properties": {
                            "Delay": {
                                "description": [
                                    "Delay"
                                ], 
                                "display_unit": [
                                    "ms"
                                ], 
                                "format": [
                                    "%5.2g"
                                ], 
                                "standard_unit": [
                                    "ms"
                                ], 
                                "unit": [
                                    "ms"
                                ]
                            }, 
                            "DelayS": {
                                "description": [
                                    "DelayS"
                                ], 
                                "display_unit": [
                                    "ms"
                                ], 
                                "format": [
                                    "%5.2g"
                                ], 
                                "standard_unit": [
                                    "ms"
                                ], 
                                "unit": [
                                    "ms"
                                ]
                            }, 
                            "PeakPowerOut": {
                                "description": [
                                    "Peak Power Out."
                                ], 
                                "display_unit": [
                                    "MW"
                                ], 
                                "format": [
                                    "%5.2f"
                                ], 
                                "label": [
                                    "Mod2 Power Out"
                                ], 
                                "standard_unit": [
                                    "MW"
                                ], 
                                "unit": [
                                    "MW"
                                ]
                            }, 
                            "VPFN": {
                                "description": [
                                    "Voltage Pulse Forming Network."
                                ], 
                                "display_unit": [
                                    "kV"
                                ], 
                                "format": [
                                    "%5.2g"
                                ], 
                                "label": [
                                    "Mod2 VPFN"
                                ], 
                                "standard_unit": [
                                    "kV"
                                ], 
                                "unit": [
                                    "kV"
                                ]
                            }
                        }, 
                        "properties": {
                            "delayS_name": [
                                "elin/t-mod/s2"
                            ], 
                            "delay_name": [
                                "elin/t-mod/2"
                            ]
                        }
                    }, 
                    "elin/mod1/run": {
                        "attribute_properties": {
                            "Delay": {
                                "__value": [
                                    "58.2"
                                ], 
                                "description": [
                                    "Delay"
                                ], 
                                "display_unit": [
                                    "ms"
                                ], 
                                "format": [
                                    "%5.2g"
                                ], 
                                "standard_unit": [
                                    "ms"
                                ], 
                                "unit": [
                                    "ms"
                                ]
                            }, 
                            "DelayS": {
                                "__value": [
                                    "2.5"
                                ], 
                                "description": [
                                    "DelayS"
                                ], 
                                "display_unit": [
                                    "ms"
                                ], 
                                "format": [
                                    "%5.2g"
                                ], 
                                "standard_unit": [
                                    "ms"
                                ], 
                                "unit": [
                                    "ms"
                                ]
                            }, 
                            "PeakPowerOut": {
                                "description": [
                                    "Peak Power Out."
                                ], 
                                "display_unit": [
                                    "MW"
                                ], 
                                "format": [
                                    "%5.2f"
                                ], 
                                "label": [
                                    "Mod1 Power Out"
                                ], 
                                "standard_unit": [
                                    "MW"
                                ], 
                                "unit": [
                                    "MW"
                                ]
                            }, 
                            "VPFN": {
                                "__value": [
                                    "33"
                                ], 
                                "description": [
                                    "Voltage Pulse Forming Network."
                                ], 
                                "display_unit": [
                                    "kV"
                                ], 
                                "format": [
                                    "%5.2g"
                                ], 
                                "label": [
                                    "Mod1 VPFN"
                                ], 
                                "standard_unit": [
                                    "kV"
                                ], 
                                "unit": [
                                    "kV"
                                ]
                            }
                        }, 
                        "properties": {
                            "delayS_name": [
                                "elin/t-mod/s1"
                            ], 
                            "delay_name": [
                                "elin/t-mod/1"
                            ]
                        }
                    }, 
                    "elin/mod2/run": {
                        "attribute_properties": {
                            "Delay": {
                                "__value": [
                                    "58.5"
                                ], 
                                "description": [
                                    "Delay"
                                ], 
                                "display_unit": [
                                    "ms"
                                ], 
                                "format": [
                                    "%5.2g"
                                ], 
                                "standard_unit": [
                                    "ms"
                                ], 
                                "unit": [
                                    "ms"
                                ]
                            }, 
                            "DelayS": {
                                "__value": [
                                    "2.5"
                                ], 
                                "description": [
                                    "DelayS"
                                ], 
                                "display_unit": [
                                    "ms"
                                ], 
                                "format": [
                                    "%5.2g"
                                ], 
                                "standard_unit": [
                                    "ms"
                                ], 
                                "unit": [
                                    "ms"
                                ]
                            }, 
                            "PeakPowerOut": {
                                "description": [
                                    "Peak Power Out."
                                ], 
                                "display_unit": [
                                    "MW"
                                ], 
                                "format": [
                                    "%5.2f"
                                ], 
                                "label": [
                                    "Mod2 Power Out"
                                ], 
                                "standard_unit": [
                                    "MW"
                                ], 
                                "unit": [
                                    "MW"
                                ]
                            }, 
                            "VPFN": {
                                "__value": [
                                    "33"
                                ], 
                                "description": [
                                    "Voltage Pulse Forming Network."
                                ], 
                                "display_unit": [
                                    "kV"
                                ], 
                                "format": [
                                    "%5.2g"
                                ], 
                                "label": [
                                    "Mod2 VPFN"
                                ], 
                                "standard_unit": [
                                    "kV"
                                ], 
                                "unit": [
                                    "kV"
                                ]
                            }
                        }, 
                        "properties": {
                            "delayS_name": [
                                "elin/t-mod/s2"
                            ], 
                            "delay_name": [
                                "elin/t-mod/2"
                            ]
                        }
                    }
                }, 
                "LinacRF": {
                    "elin/rf/run": {
                        "attribute_properties": {
                            "BunchPhase": {
                                "__value": [
                                    "15.5"
                                ]
                            }, 
                            "Delay": {
                                "__value": [
                                    "43"
                                ]
                            }, 
                            "Frequency": {
                                "__value": [
                                    "2998.1601"
                                ]
                            }, 
                            "PBunchAttenu": {
                                "__value": [
                                    "7.5"
                                ]
                            }, 
                            "PBunchPhase": {
                                "__value": [
                                    "280"
                                ]
                            }, 
                            "Sect2Phase": {
                                "__value": [
                                    "250"
                                ]
                            }
                        }
                    }
                }
            }
        }, 
        "LinacSequencer": {
            "linac": {
                "LinacSequencer": {
                    "elin/master/seq": {
                        "properties": {
                            "focus_klystron1_timeout": [
                                "3000"
                            ], 
                            "focus_klystron2_timeout": [
                                "1000"
                            ], 
                            "timeout": [
                                "5000"
                            ]
                        }
                    }
                }
            }
        }, 
        "Simurelay": {
            "test": {
                "Simurelay": {
                    "elin/r-beam/off": {}, 
                    "elin/r-beam/on": {}, 
                    "elin/r-cool/off": {}, 
                    "elin/r-cool/on": {}, 
                    "elin/r-gun/352M": {}, 
                    "elin/r-gun/economy": {}, 
                    "elin/r-gun/htoff": {}, 
                    "elin/r-gun/hton": {}, 
                    "elin/r-gun/hvoff": {}, 
                    "elin/r-gun/hvon": {}, 
                    "elin/r-gun/off": {}, 
                    "elin/r-gun/on": {}, 
                    "elin/r-gun/short": {}, 
                    "elin/r-mod/economy": {}, 
                    "elin/r-mod/heatoff": {}, 
                    "elin/r-mod/heaton": {}, 
                    "elin/r-mod/hvoff": {}, 
                    "elin/r-mod/hvon": {}, 
                    "elin/r-rf/off": {}, 
                    "elin/r-rf/on": {}, 
                    "elin/v-rv/0": {}, 
                    "elin/v-rv/1": {}, 
                    "elin/v-rv/2": {}, 
                    "elin/v-rv/3": {}, 
                    "elin/v-rv/4": {}
                }
            }
        }
    }
}
